%YAML 1.1
%TAG !u! tag:unity3d.com,2011:
--- !u!1001 &4242950244206807738
PrefabInstance:
  m_ObjectHideFlags: 0
  serializedVersion: 2
  m_Modification:
    m_TransformParent: {fileID: 0}
    m_Modifications:
    - target: {fileID: 8931780570258269476, guid: 35c52743ffeb9ce4fb869c967e0d3463,
        type: 3}
      propertyPath: m_Name
      value: Tower2
      objectReference: {fileID: 0}
    - target: {fileID: 3713518933235578697, guid: 35c52743ffeb9ce4fb869c967e0d3463,
        type: 3}
      propertyPath: m_LocalPosition.x
      value: 0
      objectReference: {fileID: 0}
    - target: {fileID: 3713518933235578697, guid: 35c52743ffeb9ce4fb869c967e0d3463,
        type: 3}
      propertyPath: m_LocalPosition.y
      value: 0
      objectReference: {fileID: 0}
    - target: {fileID: 3713518933235578697, guid: 35c52743ffeb9ce4fb869c967e0d3463,
        type: 3}
      propertyPath: m_LocalPosition.z
      value: 0
      objectReference: {fileID: 0}
    - target: {fileID: 3713518933235578697, guid: 35c52743ffeb9ce4fb869c967e0d3463,
        type: 3}
      propertyPath: m_LocalRotation.x
      value: 0
      objectReference: {fileID: 0}
    - target: {fileID: 3713518933235578697, guid: 35c52743ffeb9ce4fb869c967e0d3463,
        type: 3}
      propertyPath: m_LocalRotation.y
      value: 0
      objectReference: {fileID: 0}
    - target: {fileID: 3713518933235578697, guid: 35c52743ffeb9ce4fb869c967e0d3463,
        type: 3}
      propertyPath: m_LocalRotation.z
      value: 0
      objectReference: {fileID: 0}
    - target: {fileID: 3713518933235578697, guid: 35c52743ffeb9ce4fb869c967e0d3463,
        type: 3}
      propertyPath: m_LocalRotation.w
      value: 1
      objectReference: {fileID: 0}
    - target: {fileID: 3713518933235578697, guid: 35c52743ffeb9ce4fb869c967e0d3463,
        type: 3}
      propertyPath: m_RootOrder
      value: 0
      objectReference: {fileID: 0}
    - target: {fileID: 3713518933235578697, guid: 35c52743ffeb9ce4fb869c967e0d3463,
        type: 3}
      propertyPath: m_LocalEulerAnglesHint.x
      value: 0
      objectReference: {fileID: 0}
    - target: {fileID: 3713518933235578697, guid: 35c52743ffeb9ce4fb869c967e0d3463,
        type: 3}
      propertyPath: m_LocalEulerAnglesHint.y
      value: 0
      objectReference: {fileID: 0}
    - target: {fileID: 3713518933235578697, guid: 35c52743ffeb9ce4fb869c967e0d3463,
        type: 3}
      propertyPath: m_LocalEulerAnglesHint.z
      value: 0
      objectReference: {fileID: 0}
    - target: {fileID: 6407373224424215883, guid: 35c52743ffeb9ce4fb869c967e0d3463,
        type: 3}
      propertyPath: m_Sprite
      value: 
      objectReference: {fileID: 21300000, guid: 44222ecc5ece45246bac41ebf7469058,
        type: 3}
    - target: {fileID: 8420531428182819584, guid: 35c52743ffeb9ce4fb869c967e0d3463,
        type: 3}
      propertyPath: _shootDistance
      value: 8
      objectReference: {fileID: 0}
    - target: {fileID: 8420531428182819584, guid: 35c52743ffeb9ce4fb869c967e0d3463,
        type: 3}
      propertyPath: _shootDelay
      value: 4
      objectReference: {fileID: 0}
    - target: {fileID: 8420531428182819584, guid: 35c52743ffeb9ce4fb869c967e0d3463,
        type: 3}
      propertyPath: _bulletSpeed
      value: 4
      objectReference: {fileID: 0}
    - target: {fileID: 8420531428182819584, guid: 35c52743ffeb9ce4fb869c967e0d3463,
        type: 3}
      propertyPath: _towerPlace
      value: 
      objectReference: {fileID: 1407126424038239156}
    - target: {fileID: 8420531428182819584, guid: 35c52743ffeb9ce4fb869c967e0d3463,
        type: 3}
      propertyPath: _towerHead
      value: 
      objectReference: {fileID: 7064585665421058033}
    m_RemovedComponents: []
  m_SourcePrefab: {fileID: 100100000, guid: 35c52743ffeb9ce4fb869c967e0d3463, type: 3}
--- !u!212 &1407126424038239156 stripped
SpriteRenderer:
  m_CorrespondingSourceObject: {fileID: 2983321131857469710, guid: 35c52743ffeb9ce4fb869c967e0d3463,
    type: 3}
  m_PrefabInstance: {fileID: 4242950244206807738}
  m_PrefabAsset: {fileID: 0}
--- !u!212 &7064585665421058033 stripped
SpriteRenderer:
  m_CorrespondingSourceObject: {fileID: 6407373224424215883, guid: 35c52743ffeb9ce4fb869c967e0d3463,
    type: 3}
  m_PrefabInstance: {fileID: 4242950244206807738}
  m_PrefabAsset: {fileID: 0}
